#treze de maio (bairro)
[-23.571307, -46.644273]

#teixeira da silva (centro)
[-23.569585, -46.646545]

#maria figueiredo / carlos sampaio (bairro)
[-23.568954, -46.647395]

#brigadeiro (dupla)
[-23.567664, -46.649021]

#joaquim eugenio (bairro)
[-23.566175, -46.650868]

#campinas (centro)
[-23.564937, -46.652284]

#pamplona (bairro)
[-23.563704, -46.653758]

#casa branca (centro)
[-23.562021, -46.655841]

#peixoto gomide (bairro)
[-23.560961, -46.657127]

#min. rocha azevedo (centro)
[-23.560070, -46.658103]

#augusta (dupla)
[-23.558133, -46.660210]

#haddock lobo (bairro)
[-23.557353, -46.661088]

#bela cintra (centro)
[-23.556542, -46.662004]